{
    "fluentMethods": true,
    "relationships": [
        {
            "relationshipType": "many-to-many",
            "otherEntityRelationshipName": "",
            "relationshipName": "service",
            "otherEntityName": "service",
            "otherEntityField": "id",
            "ownerSide": true
        },
        {
            "relationshipType": "many-to-many",
            "otherEntityRelationshipName": "",
            "relationshipName": "location",
            "otherEntityName": "location",
            "otherEntityField": "id",
            "ownerSide": true
        },
        {
            "relationshipType": "one-to-one",
            "relationshipName": "invoiceInfo",
            "otherEntityName": "invoiceInfo",
            "ownerSide": false,
            "otherEntityRelationshipName": ""
        },
        {
            "relationshipType": "many-to-one",
            "relationshipName": "sysUser",
            "otherEntityName": "sysUser",
            "otherEntityField": "id"
        },
        {
            "relationshipType": "one-to-many",
            "relationshipName": "review",
            "otherEntityName": "review",
            "otherEntityRelationshipName": "business"
        }
    ],
    "fields": [
        {
            "fieldName": "businessName",
            "fieldType": "String"
        },
        {
            "fieldName": "type",
            "fieldType": "BusinessType",
            "fieldValues": "SOLE_OWNERSHIP,JOINT_STOCK,PRIVATED_LIMITED,FOREIGN_OWNED"
        },
        {
            "fieldName": "description",
            "fieldType": "String"
        },
        {
            "fieldName": "dateOperate",
            "fieldType": "LocalDate"
        },
        {
            "fieldName": "totalJobDone",
            "fieldType": "Integer"
        },
        {
            "fieldName": "website",
            "fieldType": "String"
        },
        {
            "fieldName": "status",
            "fieldType": "BusinessStatus",
            "fieldValues": "VERIFIED,APPROVED,PENDING,BLOCKED"
        },
        {
            "fieldName": "user",
            "fieldType": "UserRequirement",
            "fieldValues": "ALL,OFFLINE,ONLINE"
        },
        {
            "fieldName": "note",
            "fieldType": "String"
        }
    ],
    "changelogDate": "20170821060144",
    "entityTableName": "business",
    "dto": "mapstruct",
    "pagination": "pagination",
    "service": "serviceImpl",
    "angularJSSuffix": "tick"
}