{
    "fluentMethods": true,
    "relationships": [],
    "fields": [
        {
            "fieldName": "username",
            "fieldType": "String"
        },
        {
            "fieldName": "password",
            "fieldType": "String"
        }
    ],
    "changelogDate": "20170821060129",
    "entityTableName": "chat_info",
    "dto": "mapstruct",
    "pagination": "pagination",
    "service": "serviceImpl",
    "angularJSSuffix": "tick"
}